[
  {
    "imageUrl": "https://www.thespruce.com/thmb/2fz1zlPNq7cj7QkLAtKdqYrKvs0=/3704x2778/smart/filters:no_upscale()/the-difference-between-trees-and-shrubs-3269804-hero-a4000090f0714f59a8ec6201ad250d90.jpg",
    "title": "Fransisco Gibbs",
    "paragraph": "created invoice PQ-4491C",
    "newInvoice": "yes",
    "Date": "Just Now"
  },
  {
    "imageUrl": "https://www.thespruce.com/thmb/2fz1zlPNq7cj7QkLAtKdqYrKvs0=/3704x2778/smart/filters:no_upscale()/the-difference-between-trees-and-shrubs-3269804-hero-a4000090f0714f59a8ec6201ad250d90.jpg",
    "title": "Daniel Abril",
    "paragraph": "created invoice IN-4398C",
    "newInvoice": "no",
    "Date": "Feb 8,2021"
  }
]
