{
  "imageUrl": "https://www.ofx.com/-/media/Icons/Iconography%202017/Business%20-%20Global%20Payment%20Solutions/Recieve%20international%20payments.ashx?h=400&w=400&la=en-GB&hash=C57C66A5C668D96CE83CCD8ADC371E49",
  "title": "Total Revenue",
  "amount": "216K",
  "status": "increase",
  "amountIncrease": "$341"
}
